{
  "prepare_queue": {
    "installed": [],
    "uninstalled": []
  },
  "config_munge": {
    "files": {}
  },
  "installed_plugins": {
    "cordova-plugin-whitelist": {
      "PACKAGE_NAME": "br.com.android"
    },
    "phonegap-plugin-barcodescanner": {
      "ANDROID_SUPPORT_V4_VERSION": "27.+",
      "PACKAGE_NAME": "br.com.android"
    },
    "cordova-plugin-statusbar": {
      "PACKAGE_NAME": "br.com.android"
    }
  },
  "dependent_plugins": {}
}